[
  { "label":"ภาคการผลิตอุตสาหกรรม", "value":"ภาคการผลิตอุตสาหกรรม" ,"cate_id": 1},
  { "label":"ภาคการผลิตเกษตร", "value":"ภาคการผลิตเกษตร" ,"cate_id": 2},
  { "label":"ภาคการบริการ", "value":"ภาคการบริการ" ,"cate_id": 3},
  { "label":"ภาคการค้า", "value":"ภาคการค้า","cate_id": 4 }
]